…
## Data

Download data from European Center for Disease Prevention and Control
[ECDC](https://www.ecdc.europa.eu/en)

``` r
## Read data from public url to csv file
data <- readr::read_csv(
  "https://opendata.ecdc.europa.eu/covid19/casedistribution/csv/data.csv", 
  na = c("", " "))
data
```

    ## # A tibble: 8,915 x 10
    ##    dateRep year_week cases_weekly deaths_weekly countriesAndTer~ geoId
    ##    <chr>   <chr>            <dbl>         <dbl> <chr>            <chr>
    ##  1 14/12/~ 2020-50           1757            71 Afghanistan      AF   
    ##  2 07/12/~ 2020-49           1672           137 Afghanistan      AF   
    ##  3 30/11/~ 2020-48           1073            68 Afghanistan      AF   
    ##  4 23/11/~ 2020-47           1368            69 Afghanistan      AF   
    ##  5 16/11/~ 2020-46           1164            61 Afghanistan      AF   
    ##  6 09/11/~ 2020-45            606            24 Afghanistan      AF   
    ##  7 02/11/~ 2020-44            800            27 Afghanistan      AF   
    ##  8 26/10/~ 2020-43            633            22 Afghanistan      AF   
    ##  9 19/10/~ 2020-42            401            15 Afghanistan      AF   
    ## 10 12/10/~ 2020-41            458            15 Afghanistan      AF   
    ## # ... with 8,905 more rows, and 4 more variables: countryterritoryCode <chr>,
    ## #   popData2019 <dbl>, continentExp <chr>,
    ## #   `notification_rate_per_100000_population_14-days` <dbl>
…
cap_deaths <- paste(
  "COVID-19 related deaths from", 
  min_month$month, "to", max_month$month,
  "for", glue_collapse(countries_vec, ", ", last = " and ")
)


data_filter  
```

    ## # A tibble: 74 x 14
    ##    dateRep year_week cases_weekly deaths_weekly countriesAndTer~ geoId
    ##    <chr>   <chr>            <dbl>         <dbl> <chr>            <chr>
    ##  1 14/12/~ 2020-50          14882           624 Belgium          BE   
    ##  2 07/12/~ 2020-49          15243           694 Belgium          BE   
    ##  3 30/11/~ 2020-48          15544           832 Belgium          BE   
    ##  4 23/11/~ 2020-47          20433          1060 Belgium          BE   
    ##  5 16/11/~ 2020-46          31145          1332 Belgium          BE   
    ##  6 09/11/~ 2020-45          48769          1401 Belgium          BE   
    ##  7 02/11/~ 2020-44          93531          1147 Belgium          BE   
    ##  8 26/10/~ 2020-43         109633           570 Belgium          BE   
    ##  9 19/10/~ 2020-42          78010           252 Belgium          BE   
    ## 10 12/10/~ 2020-41          43315           161 Belgium          BE   
    ## # ... with 64 more rows, and 8 more variables: countryterritoryCode <chr>,
    ## #   popData2019 <dbl>, continentExp <chr>,
    ## #   `notification_rate_per_100000_population_14-days` <dbl>, date <date>,
    ## #   year <chr>, month <int>, day <chr>
…
